<svg width="25" height="24" viewBox="0 0 25 24" fill="none" xmlns="http://www.w3.org/2000/svg">
  <path d="M5.26519 21H4.36519C3.76519 21 3.31519 20.55 3.31519 19.95V4.05C3.31519 3.45 3.76519 3 4.36519 3H5.11519C5.86519 3 6.31519 3.45 6.31519 4.05V19.8C6.31519 20.55 5.86519 21 5.26519 21Z" fill="#FBBD08" fill-opacity="0.8"/>
  <path d="M8.71519 21H8.41519C7.66519 21 7.06519 20.4 7.06519 19.65V4.35C7.06519 3.6 7.66519 3 8.41519 3H8.86519C9.61519 3 10.2152 3.6 10.2152 4.35V19.8C10.0652 20.4 9.46519 21 8.71519 21Z" fill="#FBBD08" fill-opacity="0.8"/>
  <path d="M12.4652 21H12.1652C11.4152 21 10.8152 20.4 10.8152 19.65V4.35C10.8152 3.6 11.4152 3 12.1652 3H12.6152C13.2152 3 13.8152 3.6 13.8152 4.35V19.8C13.8152 20.4 13.2152 21 12.4652 21Z" fill="#FBBD08" fill-opacity="0.8"/>
</svg>
