<svg width="25" height="24" viewBox="0 0 25 24" fill="none" xmlns="http://www.w3.org/2000/svg">
  <g clip-path="url(#clip0_432_3735)">
    <path d="M0.315186 12C0.315186 8.8174 1.57947 5.76516 3.8299 3.51472C6.08034 1.26428 9.13259 0 12.3152 0C15.4978 0 18.55 1.26428 20.8005 3.51472C23.0509 5.76516 24.3152 8.8174 24.3152 12C24.3152 15.1826 23.0509 18.2348 20.8005 20.4853C18.55 22.7357 15.4978 24 12.3152 24C9.13259 24 6.08034 22.7357 3.8299 20.4853C1.57947 18.2348 0.315186 15.1826 0.315186 12ZM9.14175 6.89531C8.7855 7.09219 8.56519 7.47188 8.56519 7.875V16.125C8.56519 16.5328 8.7855 16.9078 9.14175 17.1047C9.498 17.3016 9.92925 17.2969 10.2808 17.0812L17.0308 12.9562C17.3636 12.75 17.5699 12.3891 17.5699 11.9953C17.5699 11.6016 17.3636 11.2406 17.0308 11.0344L10.2808 6.90937C9.93394 6.69844 9.498 6.68906 9.14175 6.88594V6.89531Z" fill="#F58D49"/>
  </g>
  <defs>
    <clipPath id="clip0_432_3735">
      <rect width="24" height="24" fill="white" transform="translate(0.315186)"/>
    </clipPath>
  </defs>
</svg>
