<svg width="25" height="24" viewBox="0 0 25 24" fill="none" xmlns="http://www.w3.org/2000/svg">
  <g clip-path="url(#clip0_432_3616)">
    <path d="M12.3152 24C15.4978 24 18.55 22.7357 20.8005 20.4853C23.0509 18.2348 24.3152 15.1826 24.3152 12C24.3152 8.8174 23.0509 5.76516 20.8005 3.51472C18.55 1.26428 15.4978 0 12.3152 0C9.13259 0 6.08034 1.26428 3.8299 3.51472C1.57947 5.76516 0.315186 8.8174 0.315186 12C0.315186 15.1826 1.57947 18.2348 3.8299 20.4853C6.08034 22.7357 9.13259 24 12.3152 24ZM17.6121 9.79688L11.6121 15.7969C11.1714 16.2375 10.4589 16.2375 10.023 15.7969L7.023 12.7969C6.58237 12.3562 6.58237 11.6438 7.023 11.2078C7.46362 10.7719 8.17612 10.7672 8.61206 11.2078L10.8152 13.4109L16.0183 8.20312C16.4589 7.7625 17.1714 7.7625 17.6074 8.20312C18.0433 8.64375 18.048 9.35625 17.6074 9.79219L17.6121 9.79688Z" fill="#03a803"/>
  </g>
  <defs>
    <clipPath id="clip0_432_3616">
      <rect width="24" height="24" fill="white" transform="translate(0.315186)"/>
    </clipPath>
  </defs>
</svg>
